PROJECT NAME: COMPARE_EXEL_FILE_created_by_ALIYSS

This Folder contains experimental features, which are advised to install only, if the author of the files recommends to install them.
Please do not install programs, files, documents without noticing the author beforehand.



INSTALLATION

Make a Shortcut and send it to the desired Location on your Computer.



ADMIN

If you see the File VBAPROJECT_MASTER_created_by_ALIYSS.bat it means you are Admin.
All the programs now run over your Computer and changes will be overwritten to other users.
Be careful and all the best from ALIYSS.



USAGE

Use this File to change previous SQL-Data to newer SQL-DATA. Try it out it is quite self-explanatory.
Afterward insert the Data into: http://www.sqlines.com/online and convert it.



CHANGELOGS

reVsion: 1.1.3.89

v1.1.3.87
The Process is simple there shouldn't be any Problems.
Nevertheless testing before doing would be a natural precaution to take.
In case of Bugs or Errors contact the Admin.

v1.0.0.00
Currently there aren't any Changelogs, for this is a very new folder.
Stay tuned for more updates.
In case of Bugs or Errors contact the Admin.



CREDITS

Aliyss Snow 		- for inspiring
Silyas D. Bieri		- for creating
Eszter Petrovics 	- for alpha-testing



LICENSE

No License needed.This is free.
For now ;)




























































































Accept this as your Reward for coming here:
=~~===+=~=~=:~:~~=+====,,::,,:,,,,,,...,..,......,..........,,,,,,,,,,,........,.....,..................,.,.,..,,,.,..,,,,,.,.....,.,,......
~:~==+=++==~:~~~~===+????II??IIIIIIIII?=::.,,....,,.......,,,,,:=+IIII+.,,.,......,......,..,..,,,,,.........,.....,,.,.,,,,,,,,..,.,,..,,,,
~==+?+?+++===~=~~~~=++?IIIIII777777IIIIIIII+:,,,...,,::=+?IIIIIII77II?+~,.,,,...,..................,.........,,.,......,,,,,,,..,,...,.,,,.,
~:==+++++===~:=~~=~==+IIIIIII7I777777I777IIIIII?+++IIIIIIIIIIIIIIIII?==~,,,,,,,,.......,......,.,..,,......,....,.,,..,,,...,,....,,..,,.,,.
:=~~+=~=~~=?+~=:~+=+=+??III7II77777II77IIIIIIIII777777II777III7IIIII+~~~,,,,,,,,,.,...............................,,,,,,.,............,.....
=~~~~~=====+?=~~=++=+++?IIIII7I7I7III777I++=~+???????IIIIIIIIIIIIIII+~::,,,,,,.,,,,...........................,,,,..,..,,,,,,,.,,,.,.,.,.,..
~::~~~=~~==+====++?+==+???IIIIIIII77777+++:=~=====++??IIIIIIIIIIIIII=~::~:,,:~,,.,..,.......................,.,.,.......,,.,,,,,,.,,.,.,,.,.
=~:::=:~==++++=+=?+~~==++??IIIII7II777I++=~~~=====+??III77IIIIIIIII?=~::~~+??=:,................,,,....,........,.,.,.....,,,..,.,,.,...,,..
=~::~~~==++=====+==~:~==++??IIIIIII77I++===+++=++=+??I7777IIIIIIIII+~~::~+?II+~,.,,......,.....,,,.,.,...,.,..,,,,.,......,..,.,...,,.,,,.,.
:~:~~~~~=====~=~==~:~~~==+++?IIII777I?+===+?IIIIIIII?I?77IIIIII7I?+==~:=??IIII~,:=++,,,,,...,..,.,,.....,......,.,,.......,,...,.,.,,,.,.,,,
~==~=+~~~+++=+~==~~~~~~===++??IIIIIII++===+?IIIIIII+++II7IIIIIIIII??+=??IIIIII=::=++=,,,,..,,..............,........,..............,,,...,,,
~~~=~~~=++?+====~=~::~~~=~==++?I?????+++=++?I?I?II?==+77IIIIIIIIIIIIIIIIIIIIII+:~+++=::,,,,,,.,.,..,,....,..........,....,,....,......,..,,,
=~=+?+=+?++=:~~=~~~~~~~~====+?+???????+==++??+?+?++~==?7IIIIIIII77IIIIIIIIIIII+~:=+=~~~=+??+++:,,...,,.....,.............,,...,,...,,,,,,,,,
==??????+?++==+=~:~~~~~=~=~==+++?????++++++++++++=~~=+I7IIIIIII777IIIIIIIIIII?+~~?==+=+?IIIII??+,,,.......................,,,,.....,.,,.,.,.
~?+??????+++++==~~~~~~~~~~=~~==++++???+++++++++=====+I7I777I7IIIIIIIIIIIIIIII?+=~++++?+?I?III???+,,.............................,..,.,,,,,,,
++???+?++?+?+=+=~:~~~~:~~~~=:~=~=+++?++++++======+?III7777I7IIIIIIIII?II?I????++++?+????IIIIII?++=,.....,............,...,,.......,,,,,,,,,,
??????++???+++==~~~~:~::~::~~~~~===++++======+=+?III777777IIIIIIIIII???????????++?+?+?IIIIIII?+~~~.....................,,,,,,,.....,,,,,,,,,
I????++???+++++~+~~~~~:~::~:~=~:~~==+====++==++?III77777IIIIIIIIIII????++?++++++++++?????I??+==::~.......................,...,,.,.....,,,,,,
I???+????++++==+=~~~::~:::~:~:::~~=====+=+++++??III77II7IIIIIIIII??????+++++++++++++++?????++~:::,........,...............,.,.,,........,,,,
?????+???+?+===+===:::=:~::~~~:~~==~===+=+++++IIIIIIIIIIIIIIII?I?????+++++++++++++++++++++==~:,:,.......................,.,..,..............
I???+I??+?+++++++==~::~::::~:::~~~~===++=++????IIIIIIIIIIIII?I???????++++==++++++++====+===~::::.,..................,.,,..,,,,..,.........,,
????????+??==?+=?+~:,~::::::::::~~~===++=++?++??IIIIIIIIII??????+++??+++++===+++=========~~::::,.................,....,,,,,,,.,..,.,...,.,..
?I?I????I?=+?+++++=,::::,:::::::~~~==+++=+++???????I?IIIII?????+++++++++========+=====~=~::::::,.............,.....,,,,,,,,,,,,,,,,,,,,,,,,,
I?I?+???+++??++??:~,,:,~,::~::::~~~~===++++++?+???I?I??I???+?++++++++++=============~~~~:::::::....................,.,,,,,,,,,,,,,,,,,,,,,,,
??+I+??+++++++++~~:,:,~:::::,,:::::~~===+++++++?+???+????++?++++++++++===========~~=~~~:::~:::,..,.....,.....,.......,..,,,,,,,,,,,,,,,,,,,,
??I??++++==++?=:::,::::::::::,::::~:~=~~===++++++++++++?+++++=+++++=======~======~~~~~::::~::,..............,,...,,.,.,,,,,,,,,,,,,,,,,,,,,,
?I??+++++=+?+=::::::~:::::::::~~::~:~~~~~=====++++++++++++++=+=+===========~~~=~~~~:~::::::::,............,..........,,,,,,,,,,,,,,,,,,,,,,,
+??++==+=+?+=:::~~~~~~:::::,:::::~:~::~~~~===~========+===+=+============~=~~~~~~~:::::::::~:,...,...................,,,,::::,,,,,,,,,,,,,,,
?++?===++???~~~=~~~~=~::::~:::,::~:~~=:~~~~~~~==~~======~===~======~=~===~~~~~~~:::::::::::::.....,.............,,,:,,:::::::,,,,,,,,,,,,,,,
+?+===+I+II+~:+++=~=~::::~~:,,:,:::~::~~~~~~~~~~~~~=~~=~==~=~~~=~===~~==~~~~~~::::::::::::~:,,..,.,,.............:::::,,::~~:::,,,,,,,,,,,,,
???+=+I??7I?=~?~+~~=:~::~:~~:,~,::,=:~~~~~~~~~:~~~~~~~~~~~~~=~~~=~=~~~~~~~:~::::::::::::~:::,,,..,..,,..,.,,.,,,~~~:~:~~==~===~:,::,,,,,,,,,
++=++?I?IIII+=?+===::=:~:~~~:=~~,:,,,:::~:~~~~~:~~~~~~=~=~~==~~~~~~:~~:::~::::::::::::::::::,,,....,,,,,.,.,,:~~:~~~=====~~=~~~~:::,,,,,,,,,
+?+?+II?IIII+=??=+=~::~~~~:~=~::~::,,:,:::~~=::=~~~~~~=~~~~=~~~~~~::~::::~:::::::::::::::::::,,,,,..,,,,,,,:::::~:~==~:~~:~==~~~~::::,,,,,,,
??++?I?IIIII+++?+?=:~=~~::~=~~:~~~::::,::~::~=::~:~::~~:~~~~~:~~::::::::::::,,::::::::::::::::,,,,,,,,,,::~:~:~~~~=~==+=+++++===~~:~:::::,,,
???+?I?????I?+++??==~=~:~=~~~::~=::~==~::::~:~~~~~~:::::::::::~::::::,:,:,::::::::::::::::,:,:,::,,:,,:,::~~~=~~===+??+++=~+=?=====::=:::,,,
??+?II??????++=?=?==+=~~~==~=~~=~:::=~=~~:,~=~:=~~:::~::,,:~:::::::,::::::,,:,::::::::::,:::::,:~::~:~~~~~~~=~~~==+??+?+?=++=~=~=~++~:::::::
??????I?++++++=+===~?======~,===~~::~~:?=~:::~~~~:~~~:,::::::,::::::,:::::,,:,:,,,::,,,:,:::::::~:~~:~=~~=~=~===~~~?+?+??==+=~~~:=~~~~::::::
????+?I??+++++=+~=+=+~===~+,~==~~~~::~~~=+=::~~:~=~~~:~~~~::::::::::,:::::,,,::::::,,::::::::::::~~~~~~~====~==~~~++++=~~~=?=+++==+==~~~::::
?I??I+??+++++=++~====~==~=~,==~::~~:~~~~~~~~=~==~~~~=~~~~~~~:,,,,:,::::,,::,,,:,,:,:,:::::::::::::~~~======~=~~~=:~=~=~:+?+?=+??++~::~===:::
????I+=??=+==========~=~~=::~~:~:~:~:~::~===+==?=?+~~~=~:::~:::,,,,,,:::,:,,,,:::,:,,:::,,::::::::~=~~~~~~~~====~+~=+==??I??+????+?=+,~:=~=:
??????=++===+======~+:=~===:~~:~,~~:~~~:~:~~++==?===~~~~~~~~~~~:::,:::::::::::,,:,:::,:,:::,:::::::~~=+=++++++=++++=++??I???I?I+?+=++?==:::~
I????===+=+~==~~====+~==~==:::::~:~~::::=::~=+===?=~+=:~:::~~::~::::::::::::::,,,,,,,,::::::::::::::==+==+????=+==~+=+~+?++=++???+?=+?+=~~::
?+??+??=~+=====~=~~==~~==~~=:~::~:~~~~::=:===~==~~==~=+=:~~:::=~~:::~~~:::::::,,,,::,,:::,::::::::::~=+===+=+=~=+?=+=:::~~~:~=~~+=+==++=+==~