PROJECT NAME: VBA_OUTLOOK_created_by_ALIYSS

This Folder contains experimental features, which are advised to install only, if the author of the files recommends to install them.
Please do not install programs, files, documents without noticing the author beforehand.



INSTALLATION

Copy VBAPROJECT_COPY_created_by_ALIYSS.bat to "My Program Files" and run it.
Open THING_scripted_by_ALIYSS.xlsm in the 2-CONFIG_FILES Folder.



ADMIN

If you see the File VBAPROJECT_MASTER_created_by_ALIYSS.bat it means you are Admin.
All the programs now run over your Computer and changes will be overwritten to other users.
Be careful and all the best from ALIYSS.



USAGE

This is a manual installation version, which will be updated as soon as Aliyss understands the whole Process.
Aliyss will try to find a solution to automate everything as beautifully as possible. At the moment the most you can do is wait.



CHANGELOGS

reVsion: 2.6.3.85

v2.6.3.82
Updated the Configuration File: THING_created_by_ALIYSS
Further Improvements have been made.

v2.6.3.77
Updated the Configuration File: THING_created_by_ALIYSS
It now works with the Configuration of BACKUPING_CONFIG.
Folder Categorization of the Backup Files has been improved.
Added: /1-BACKUP_FILES
In case of Bugs or Errors contact the Admin.

v2.6.2.75
AUTOMATIC_TOFOLDER has been enabled and should now work flawlessly.
In case of Bugs or Errors contact the Admin.

v2.5.9.72
Updated the Configuration File: THING_created_by_ALIYSS
It now works with the Configuration of AUTOMATIC_DOWNLOAD again.
AUTOMATIC_TOFOLDER has been disabled due to multiple user issues.
Don't worry, it will be back online soon.
I repeat AUTOMATIC_TOFOLDER does not work. Don't try it!
In case of Bugs or Errors contact the Admin.

v2.5.9.68
Folder Categorization of the Configuration Files has been improved.
Added: /2-AUTOMATIC_DOWNLOAD
Added: /2-AUTOMATIC_TOFOLDER
In case of Bugs or Errors contact the Admin.

v2.4.9.47
It should work. Like everything. (With a bit customization)
Stuff might not work.
Subject download works.
In case of Bugs or Errors contact the Admin.

v1.0.0.00
Currently there aren't any Changelogs, for this is a very new folder.
Stay tuned for more updates.
In case of Bugs or Errors contact the Admin.



CREDITS

Aliyss Snow 		- for inspiring
Silyas D. Bieri		- for creating
Iain McIean 		- for alpha-testing



LICENSE

No License needed.This is free.
For now ;)













































Accept this as your Reward for coming here:
=~~===+=~=~=:~:~~=+====,,::,,:,,,,,,...,..,......,..........,,,,,,,,,,,........,.....,..................,.,.,..,,,.,..,,,,,.,.....,.,,......
~:~==+=++==~:~~~~===+????II??IIIIIIIII?=::.,,....,,.......,,,,,:=+IIII+.,,.,......,......,..,..,,,,,.........,.....,,.,.,,,,,,,,..,.,,..,,,,
~==+?+?+++===~=~~~~=++?IIIIII777777IIIIIIII+:,,,...,,::=+?IIIIIII77II?+~,.,,,...,..................,.........,,.,......,,,,,,,..,,...,.,,,.,
~:==+++++===~:=~~=~==+IIIIIII7I777777I777IIIIII?+++IIIIIIIIIIIIIIIII?==~,,,,,,,,.......,......,.,..,,......,....,.,,..,,,...,,....,,..,,.,,.
:=~~+=~=~~=?+~=:~+=+=+??III7II77777II77IIIIIIIII777777II777III7IIIII+~~~,,,,,,,,,.,...............................,,,,,,.,............,.....
=~~~~~=====+?=~~=++=+++?IIIII7I7I7III777I++=~+???????IIIIIIIIIIIIIII+~::,,,,,,.,,,,...........................,,,,..,..,,,,,,,.,,,.,.,.,.,..
~::~~~=~~==+====++?+==+???IIIIIIII77777+++:=~=====++??IIIIIIIIIIIIII=~::~:,,:~,,.,..,.......................,.,.,.......,,.,,,,,,.,,.,.,,.,.
=~:::=:~==++++=+=?+~~==++??IIIII7II777I++=~~~=====+??III77IIIIIIIII?=~::~~+??=:,................,,,....,........,.,.,.....,,,..,.,,.,...,,..
=~::~~~==++=====+==~:~==++??IIIIIII77I++===+++=++=+??I7777IIIIIIIII+~~::~+?II+~,.,,......,.....,,,.,.,...,.,..,,,,.,......,..,.,...,,.,,,.,.
:~:~~~~~=====~=~==~:~~~==+++?IIII777I?+===+?IIIIIIII?I?77IIIIII7I?+==~:=??IIII~,:=++,,,,,...,..,.,,.....,......,.,,.......,,...,.,.,,,.,.,,,
~==~=+~~~+++=+~==~~~~~~===++??IIIIIII++===+?IIIIIII+++II7IIIIIIIII??+=??IIIIII=::=++=,,,,..,,..............,........,..............,,,...,,,
~~~=~~~=++?+====~=~::~~~=~==++?I?????+++=++?I?I?II?==+77IIIIIIIIIIIIIIIIIIIIII+:~+++=::,,,,,,.,.,..,,....,..........,....,,....,......,..,,,
=~=+?+=+?++=:~~=~~~~~~~~====+?+???????+==++??+?+?++~==?7IIIIIIII77IIIIIIIIIIII+~:=+=~~~=+??+++:,,...,,.....,.............,,...,,...,,,,,,,,,
==??????+?++==+=~:~~~~~=~=~==+++?????++++++++++++=~~=+I7IIIIIII777IIIIIIIIIII?+~~?==+=+?IIIII??+,,,.......................,,,,.....,.,,.,.,.
~?+??????+++++==~~~~~~~~~~=~~==++++???+++++++++=====+I7I777I7IIIIIIIIIIIIIIII?+=~++++?+?I?III???+,,.............................,..,.,,,,,,,
++???+?++?+?+=+=~:~~~~:~~~~=:~=~=+++?++++++======+?III7777I7IIIIIIIII?II?I????++++?+????IIIIII?++=,.....,............,...,,.......,,,,,,,,,,
??????++???+++==~~~~:~::~::~~~~~===++++======+=+?III777777IIIIIIIIII???????????++?+?+?IIIIIII?+~~~.....................,,,,,,,.....,,,,,,,,,
I????++???+++++~+~~~~~:~::~:~=~:~~==+====++==++?III77777IIIIIIIIIII????++?++++++++++?????I??+==::~.......................,...,,.,.....,,,,,,
I???+????++++==+=~~~::~:::~:~:::~~=====+=+++++??III77II7IIIIIIIII??????+++++++++++++++?????++~:::,........,...............,.,.,,........,,,,
?????+???+?+===+===:::=:~::~~~:~~==~===+=+++++IIIIIIIIIIIIIIII?I?????+++++++++++++++++++++==~:,:,.......................,.,..,..............
I???+I??+?+++++++==~::~::::~:::~~~~===++=++????IIIIIIIIIIIII?I???????++++==++++++++====+===~::::.,..................,.,,..,,,,..,.........,,
????????+??==?+=?+~:,~::::::::::~~~===++=++?++??IIIIIIIIII??????+++??+++++===+++=========~~::::,.................,....,,,,,,,.,..,.,...,.,..
?I?I????I?=+?+++++=,::::,:::::::~~~==+++=+++???????I?IIIII?????+++++++++========+=====~=~::::::,.............,.....,,,,,,,,,,,,,,,,,,,,,,,,,
I?I?+???+++??++??:~,,:,~,::~::::~~~~===++++++?+???I?I??I???+?++++++++++=============~~~~:::::::....................,.,,,,,,,,,,,,,,,,,,,,,,,
??+I+??+++++++++~~:,:,~:::::,,:::::~~===+++++++?+???+????++?++++++++++===========~~=~~~:::~:::,..,.....,.....,.......,..,,,,,,,,,,,,,,,,,,,,
??I??++++==++?=:::,::::::::::,::::~:~=~~===++++++++++++?+++++=+++++=======~======~~~~~::::~::,..............,,...,,.,.,,,,,,,,,,,,,,,,,,,,,,
?I??+++++=+?+=::::::~:::::::::~~::~:~~~~~=====++++++++++++++=+=+===========~~~=~~~~:~::::::::,............,..........,,,,,,,,,,,,,,,,,,,,,,,
+??++==+=+?+=:::~~~~~~:::::,:::::~:~::~~~~===~========+===+=+============~=~~~~~~~:::::::::~:,...,...................,,,,::::,,,,,,,,,,,,,,,
?++?===++???~~~=~~~~=~::::~:::,::~:~~=:~~~~~~~==~~======~===~======~=~===~~~~~~~:::::::::::::.....,.............,,,:,,:::::::,,,,,,,,,,,,,,,
+?+===+I+II+~:+++=~=~::::~~:,,:,:::~::~~~~~~~~~~~~~=~~=~==~=~~~=~===~~==~~~~~~::::::::::::~:,,..,.,,.............:::::,,::~~:::,,,,,,,,,,,,,
???+=+I??7I?=~?~+~~=:~::~:~~:,~,::,=:~~~~~~~~~:~~~~~~~~~~~~~=~~~=~=~~~~~~~:~::::::::::::~:::,,,..,..,,..,.,,.,,,~~~:~:~~==~===~:,::,,,,,,,,,
++=++?I?IIII+=?+===::=:~:~~~:=~~,:,,,:::~:~~~~~:~~~~~~=~=~~==~~~~~~:~~:::~::::::::::::::::::,,,....,,,,,.,.,,:~~:~~~=====~~=~~~~:::,,,,,,,,,
+?+?+II?IIII+=??=+=~::~~~~:~=~::~::,,:,:::~~=::=~~~~~~=~~~~=~~~~~~::~::::~:::::::::::::::::::,,,,,..,,,,,,,:::::~:~==~:~~:~==~~~~::::,,,,,,,
??++?I?IIIII+++?+?=:~=~~::~=~~:~~~::::,::~::~=::~:~::~~:~~~~~:~~::::::::::::,,::::::::::::::::,,,,,,,,,,::~:~:~~~~=~==+=+++++===~~:~:::::,,,
???+?I?????I?+++??==~=~:~=~~~::~=::~==~::::~:~~~~~~:::::::::::~::::::,:,:,::::::::::::::::,:,:,::,,:,,:,::~~~=~~===+??+++=~+=?=====::=:::,,,
??+?II??????++=?=?==+=~~~==~=~~=~:::=~=~~:,~=~:=~~:::~::,,:~:::::::,::::::,,:,::::::::::,:::::,:~::~:~~~~~~~=~~~==+??+?+?=++=~=~=~++~:::::::
??????I?++++++=+===~?======~,===~~::~~:?=~:::~~~~:~~~:,::::::,::::::,:::::,,:,:,,,::,,,:,:::::::~:~~:~=~~=~=~===~~~?+?+??==+=~~~:=~~~~::::::
????+?I??+++++=+~=+=+~===~+,~==~~~~::~~~=+=::~~:~=~~~:~~~~::::::::::,:::::,,,::::::,,::::::::::::~~~~~~~====~==~~~++++=~~~=?=+++==+==~~~::::
?I??I+??+++++=++~====~==~=~,==~::~~:~~~~~~~~=~==~~~~=~~~~~~~:,,,,:,::::,,::,,,:,,:,:,:::::::::::::~~~======~=~~~=:~=~=~:+?+?=+??++~::~===:::
????I+=??=+==========~=~~=::~~:~:~:~:~::~===+==?=?+~~~=~:::~:::,,,,,,:::,:,,,,:::,:,,:::,,::::::::~=~~~~~~~~====~+~=+==??I??+????+?=+,~:=~=:
??????=++===+======~+:=~===:~~:~,~~:~~~:~:~~++==?===~~~~~~~~~~~:::,:::::::::::,,:,:::,:,:::,:::::::~~=+=++++++=++++=++??I???I?I+?+=++?==:::~
I????===+=+~==~~====+~==~==:::::~:~~::::=::~=+===?=~+=:~:::~~::~::::::::::::::,,,,,,,,::::::::::::::==+==+????=+==~+=+~+?++=++???+?=+?+=~~::
?+??+??=~+=====~=~~==~~==~~=:~::~:~~~~::=:===~==~~==~=+=:~~:::=~~:::~~~:::::::,,,,::,,:::,::::::::::~=+===+=+=~=+?=+=:::~~~:~=~~+=+==++=+==~